<svg xmlns="http://www.w3.org/2000/svg" width="57" height="50" viewBox="0 0 57 50">
  <defs>
    <style>
      .cls-1 {
        fill: #00003b;
        fill-rule: evenodd;
      }
    </style>
  </defs>
  <path id="icon_shopping_cart" data-name="icon shopping cart" class="cls-1" d="M121.311,266.263a4.705,4.705,0,1,1-4.705-4.736A4.721,4.721,0,0,1,121.311,266.263Zm12.9-4.4a4.57,4.57,0,1,0,4.538,4.569A4.554,4.554,0,0,0,134.211,261.861ZM148.9,236.185l-6.71,21.228a1.913,1.913,0,0,1-1.81,1.306H110.066a1.915,1.915,0,0,1-1.824-1.344l-8.12-30.187-6.85-2.449a1.928,1.928,0,0,1-1.162-2.458h0a1.909,1.909,0,0,1,2.442-1.17l7.746,2.769a1.921,1.921,0,0,1,1.183,1.233l2.257,8.412L147.1,233.64a1.911,1.911,0,0,1,1.549.808A1.936,1.936,0,0,1,148.9,236.185Zm-21.759,1.188-0.008,6.943h5.886l0.866-6.943h-6.744Zm-10.818.019,0.737,6.924h6.133l0.007-6.924h-6.877Zm-7.907,6.106,0.22,0.818h4.509l-0.9-6.924h-5.469l0.59,2.2Zm6.095,11.361-0.95-7.327H109.5l1.969,7.336Zm8.671-.07,0.008-7.257H117.4l0.77,7.231Zm8.526,0.044,0.91-7.3h-5.489l-0.008,7.275Zm9.41-7.3h-4.535l-0.913,7.32,3.081,0.021Zm3.275-10.159h-6.543l-0.866,6.943h5.171Z" transform="translate(-92 -221)"/>
</svg>
