<svg xmlns="http://www.w3.org/2000/svg" width="40" height="28" viewBox="0 0 40 28">
  <metadata><?xpacket begin="﻿" id="W5M0MpCehiHzreSzNTczkc9d"?>
<x:xmpmeta xmlns:x="adobe:ns:meta/" x:xmptk="Adobe XMP Core 5.6-c138 79.159824, 2016/09/14-01:09:01        ">
   <rdf:RDF xmlns:rdf="http://www.w3.org/1999/02/22-rdf-syntax-ns#">
      <rdf:Description rdf:about=""/>
   </rdf:RDF>
</x:xmpmeta>
                                                                                                    
                                                                                                    
                                                                                                    
                                                                                                    
                                                                                                    
                                                                                                    
                                                                                                    
                                                                                                    
                                                                                                    
                                                                                                    
                                                                                                    
                                                                                                    
                                                                                                    
                                                                                                    
                                                                                                    
                                                                                                    
                                                                                                    
                                                                                                    
                                                                                                    
                                                                                                    
                           
<?xpacket end="w"?></metadata>
<defs>
    <style>
      .cls-1 {
        fill: #3c528f;
        fill-rule: evenodd;
      }
    </style>
  </defs>
  <path id="מעטפה" class="cls-1" d="M30.475,11.856L32.564,13.6l1.115,0.93,2.089,1.744a0.586,0.586,0,0,1,0,.93l-2.089,1.744-1.115.93-2.089,1.744c-0.307.256-.557,0.14-0.557-0.257v-2.22H24.695a0.728,0.728,0,0,1-.729-0.722V15.055a0.727,0.727,0,0,1,.729-0.722h5.223V12.113C29.918,11.716,30.168,11.6,30.475,11.856Zm-4.669,8.506-0.056-.047H9.124l6.227-6.128,1.364,1.342a1.978,1.978,0,0,0,2.757,0l1.364-1.342,2.083,2.05c0.023-.049.049-0.1,0.076-0.143V15.055a1.66,1.66,0,0,1,.249-0.873L22.041,13l7.364-7.248a0.238,0.238,0,0,1,.08.173V10.79a1.536,1.536,0,0,1,.3-0.033h0a1.405,1.405,0,0,1,.2.016,1.211,1.211,0,0,1,.186-0.016h0a1.435,1.435,0,0,1,.927.363l0.085,0.071V5.925a1.921,1.921,0,0,0-.842-1.583A1.941,1.941,0,0,0,29.242,4H6.943a1.941,1.941,0,0,0-1.1.342A1.921,1.921,0,0,0,5,5.925v14.15a1.921,1.921,0,0,0,.842,1.582,1.94,1.94,0,0,0,1.1.343H27.767l-1.15-.96ZM27.062,5.684l-6.227,6.128L19.629,13l-1.356,1.334a0.266,0.266,0,0,1-.36,0L16.557,13l-1.206-1.187L9.124,5.684H27.062ZM6.78,20.248a0.239,0.239,0,0,1-.08-0.173V5.925a0.238,0.238,0,0,1,.08-0.173L14.145,13Z"/>
</svg>
